C:\Users\kika\Documents\IBA-master\src\main\java\com\sample\project\config\SpringWebConfig.java
C:\Users\kika\Documents\IBA-master\src\main\java\com\sample\project\servlet\MyWebInitializer.java
C:\Users\kika\Documents\IBA-master\src\main\java\com\sample\project\Student.java
C:\Users\kika\Documents\IBA-master\src\main\java\com\sample\project\Sex.java
C:\Users\kika\Documents\IBA-master\src\main\java\com\sample\project\web\controller\HelloController.java
